172.18.0.1 - - [31/May/2018:10:55:47 +0000] "GET / HTTP/1.1" 200 351 "-" "Mozilla/5.0 (Macintosh; Intel Mac OS X 10_13_4) AppleWebKit/537.36 (KHTML, like Gecko) Chrome/66.0.3359.181 Safari/537.36"
172.18.0.1 - - [31/May/2018:10:55:47 +0000] "GET /favicon.ico HTTP/1.1" 200 351 "http://localhost:8080/" "Mozilla/5.0 (Macintosh; Intel Mac OS X 10_13_4) AppleWebKit/537.36 (KHTML, like Gecko) Chrome/66.0.3359.181 Safari/537.36"
172.18.0.1 - - [04/Jun/2018:09:48:00 +0000] "GET / HTTP/1.1" 200 1763 "-" "Mozilla/5.0 (Macintosh; Intel Mac OS X 10_13_4) AppleWebKit/537.36 (KHTML, like Gecko) Chrome/66.0.3359.181 Safari/537.36"
172.18.0.1 - - [04/Jun/2018:09:48:01 +0000] "GET /status HTTP/1.1" 200 1763 "-" "Mozilla/5.0 (Macintosh; Intel Mac OS X 10_13_4) AppleWebKit/537.36 (KHTML, like Gecko) Chrome/66.0.3359.181 Safari/537.36"
172.18.0.1 - - [04/Jun/2018:09:48:01 +0000] "GET /favicon.ico HTTP/1.1" 200 1763 "http://localhost:8080/status" "Mozilla/5.0 (Macintosh; Intel Mac OS X 10_13_4) AppleWebKit/537.36 (KHTML, like Gecko) Chrome/66.0.3359.181 Safari/537.36"
172.18.0.1 - - [04/Jun/2018:09:56:18 +0000] "GET /status HTTP/1.1" 200 4203 "-" "Mozilla/5.0 (Macintosh; Intel Mac OS X 10_13_4) AppleWebKit/537.36 (KHTML, like Gecko) Chrome/66.0.3359.181 Safari/537.36"
172.18.0.1 - - [04/Jun/2018:09:56:18 +0000] "GET /favicon.ico HTTP/1.1" 200 4197 "http://localhost:8080/status" "Mozilla/5.0 (Macintosh; Intel Mac OS X 10_13_4) AppleWebKit/537.36 (KHTML, like Gecko) Chrome/66.0.3359.181 Safari/537.36"
172.18.0.1 - - [04/Jun/2018:09:59:36 +0000] "GET /status HTTP/1.1" 200 25341 "-" "Mozilla/5.0 (Macintosh; Intel Mac OS X 10_13_4) AppleWebKit/537.36 (KHTML, like Gecko) Chrome/66.0.3359.181 Safari/537.36"
172.18.0.1 - - [04/Jun/2018:09:59:36 +0000] "GET /favicon.ico HTTP/1.1" 200 25341 "http://localhost:8080/status" "Mozilla/5.0 (Macintosh; Intel Mac OS X 10_13_4) AppleWebKit/537.36 (KHTML, like Gecko) Chrome/66.0.3359.181 Safari/537.36"
